<?xml version="1.0" encoding="UTF-8" standalone="no"?>
<svg width="2804px" height="952px" viewBox="0 0 2804 952" version="1.1" xmlns="http://www.w3.org/2000/svg" xmlns:xlink="http://www.w3.org/1999/xlink" xmlns:sketch="http://www.bohemiancoding.com/sketch/ns">
    <!-- Generator: Sketch 3.1.1 (8761) - http://www.bohemiancoding.com/sketch -->
    <title>bottom left</title>
    <desc>Created with Sketch.</desc>
    <defs></defs>
    <g id="Page-1" stroke="none" stroke-width="1" fill="none" fill-rule="evenodd" sketch:type="MSPage">
        <g id="bottom-left" sketch:type="MSLayerGroup" transform="translate(1384.500000, 485.000000) scale(-1, -1) translate(-1384.500000, -485.000000) translate(-34.000000, -234.000000)">
            <g id="Imported-Layers" transform="translate(1809.680553, 718.661996) rotate(-345.000000) translate(-1809.680553, -718.661996) translate(879.180553, 223.661996)" sketch:type="MSShapeGroup">
                <path d="M670.649868,248.892049 L670.649868,193.185674 L718.056313,221.039573 L670.649868,248.892049 Z" id="Fill-1" fill="#A05598"></path>
                <path d="M811.964547,332.58446 L811.964547,276.878084 L859.369568,304.731984 L811.964547,332.58446 Z" id="Fill-2" fill="#A05598"></path>
                <path d="M764.912847,248.892049 L764.912847,193.185674 L812.317867,221.039573 L764.912847,248.892049 Z" id="Fill-3" fill="#A05598"></path>
                <path d="M1081.18438,275.6816 L1081.18438,219.975225 L1128.5894,247.829124 L1081.18438,275.6816 Z" id="Fill-4" fill="#A05598"></path>
                <path d="M1669.30945,281.652524 L1669.30945,225.946148 L1716.71447,253.800048 L1669.30945,281.652524 Z" id="Fill-4" fill="#A05598"></path>
                <path d="M1128.81005,857.80774 L1128.81005,802.101364 L1176.21507,829.95384 L1128.81005,857.80774 Z" id="Fill-6" fill="#B0C535"></path>
                <path d="M953.851912,248.892049 L953.851912,193.185674 L906.446892,221.039573 L953.851912,248.892049 Z" id="Fill-7" fill="#59B0A0"></path>
                <path d="M670.848593,248.892049 L670.848593,193.185674 L623.443572,221.039573 L670.848593,248.892049 Z" id="Fill-8" fill="#59B0A0"></path>
                <path d="M859.36786,248.892049 L859.36786,193.185674 L811.962839,221.039573 L859.36786,248.892049 Z" id="Fill-9" fill="#59B0A0"></path>
                <path d="M1000.87016,332.232762 L1000.87016,276.526387 L953.463715,304.380286 L1000.87016,332.232762 Z" id="Fill-10" fill="#59B0A0"></path>
                <path d="M717.555514,332.232762 L764.960535,304.380286 L764.960535,360.085238 L717.555514,332.232762 Z" id="Fill-13" fill="#DD73A7"></path>
                <path d="M906.4486,276.526244 L953.853621,248.673768 L953.853621,304.37872 L906.4486,276.526244 Z" id="Fill-15" fill="#FAF39D"></path>
                <path d="M1494.57366,282.497168 L1541.97869,254.644692 L1541.97869,310.349644 L1494.57366,282.497168 Z" id="Fill-15" fill="#FAF39D"></path>
                <path d="M717.555514,276.745237 L764.960535,248.892761 L764.960535,304.597712 L717.555514,276.745237 Z" id="Fill-16" fill="#FAF39D"></path>
                <path d="M906.480629,276.878084 L859.074185,249.025609 L859.074185,304.73056 L906.480629,276.878084 Z" id="Fill-18" fill="#B0C535"></path>
                <path d="M1135.72898,476.663105 L1135.72898,420.95673 L1088.32396,393.104254 L1088.32396,448.809206 L1135.72898,476.663105 Z" id="Fill-20" fill="#308099"></path>
                <path d="M812.316159,276.745237 L764.911138,248.892761 L764.911138,304.597712 L812.316159,276.745237 Z" id="Fill-22" fill="#B0C535"></path>
                <path d="M670.649868,248.892049 L718.056313,221.039573 L718.056313,276.744525 L670.649868,248.892049 Z" id="Fill-24" fill="#308099"></path>
                <path d="M953.465424,416.229028 L1000.87044,388.376552 L1000.87044,444.082928 L953.465424,416.229028 Z" id="Fill-26" fill="#DD73A7"></path>
                <path d="M1541.59049,422.199952 L1588.99551,394.347476 L1588.99551,450.053852 L1541.59049,422.199952 Z" id="Fill-26" fill="#DD73A7"></path>
                <path d="M717.555514,387.441349 L764.960535,359.588874 L764.960535,415.295249 L717.555514,387.441349 Z" id="Fill-27" fill="#59B0A0"></path>
                <path d="M764.912847,248.892049 L812.317867,221.039573 L812.317867,276.744525 L764.912847,248.892049 Z" id="Fill-28" fill="#DD73A7"></path>
                <path d="M1088.58973,393.600618 L1088.58973,337.894243 L1041.18471,310.041767 L1041.18471,365.748142 L1088.58973,393.600618 Z" id="Fill-29" fill="#A05598"></path>
                <path d="M1676.7148,399.571542 L1676.7148,343.865167 L1629.30978,316.012691 L1629.30978,371.719066 L1676.7148,399.571542 Z" id="Fill-29" fill="#A05598"></path>
                <path d="M1127.97045,653.920669 L1175.37547,626.066769 L1175.37547,681.773145 L1127.97045,653.920669 Z" id="Fill-30" fill="#A05598"></path>
                <path d="M1081.18438,773.997859 L1128.5894,746.143959 L1128.5894,801.850335 L1081.18438,773.997859 Z" id="Fill-31" fill="#DD73A7"></path>
                <path d="M670.848593,248.892049 L623.443572,221.039573 L623.443572,276.744525 L670.848593,248.892049 Z" id="Fill-32" fill="#B0C535"></path>
                <path d="M859.36786,248.892049 L811.962839,221.039573 L811.962839,276.744525 L859.36786,248.892049 Z" id="Fill-33" fill="#308099"></path>
                <path d="M1175.99229,275.6816 L1128.58727,247.829124 L1128.58727,303.534076 L1175.99229,275.6816 Z" id="Fill-34" fill="#B0C535"></path>
                <path d="M1764.11735,281.652524 L1716.71233,253.800048 L1716.71233,309.504999 L1764.11735,281.652524 Z" id="Fill-34" fill="#B0C535"></path>
                <path d="M1222.99943,302.896605 L1175.59299,275.04413 L1175.59299,330.749081 L1222.99943,302.896605 Z" id="Fill-35" fill="#308099"></path>
                <path d="M1811.1245,308.867529 L1763.71805,281.015054 L1763.71805,336.720005 L1811.1245,308.867529 Z" id="Fill-35" fill="#308099"></path>
                <path d="M1222.99943,359.074996 L1175.59299,331.22252 L1175.59299,386.927472 L1222.99943,359.074996 Z" id="Fill-36" fill="#FAF39D"></path>
                <path d="M1128.58769,653.920669 L1081.18267,626.066769 L1081.18267,681.773145 L1128.58769,653.920669 Z" id="Fill-37" fill="#B0C535"></path>
                <path d="M1088.39101,337.894812 L1088.39101,393.601188 L1135.51986,420.784441 L1135.51986,365.58639 L1088.39101,337.894812 Z" id="Fill-38" fill="#59B0A0"></path>
                <path d="M1041.1961,365.748142 L1041.1961,421.454518 L1088.32353,448.637771 L1088.32353,393.43972 L1041.1961,365.748142 Z" id="Fill-39" fill="#B0C535"></path>
                <path d="M1000.87016,332.232762 L953.463715,304.380286 L953.463715,360.085238 L1000.87016,332.232762 Z" id="Fill-40" fill="#308099"></path>
                <path d="M1588.99522,338.203686 L1541.58878,310.35121 L1541.58878,366.056161 L1588.99522,338.203686 Z" id="Fill-40" fill="#308099"></path>
                <path d="M1222.38091,490.473724 L1174.97589,462.619825 L1174.97589,518.3262 L1222.38091,490.473724 Z" id="Fill-42" fill="#308099"></path>
                <path d="M1127.57286,546.547175 L1174.97788,518.693276 L1174.97788,574.399651 L1127.57286,546.547175 Z" id="Fill-43" fill="#59B0A0"></path>
                <path d="M1001.17323,276.082706 L1001.17323,220.376331 L1048.57825,248.230231 L1001.17323,276.082706 Z" id="Fill-44" fill="#FAF39D"></path>
                <path d="M46.8104947,455.775105 L46.8104947,401.323166 L93.1478669,428.549135 L46.8104947,455.775105 Z" id="Fill-46" fill="#A05598"></path>
                <path d="M208.002147,357.903572 L208.002147,303.451633 L254.339519,330.677602 L208.002147,357.903572 Z" id="Fill-47" fill="#A05598"></path>
                <path d="M438.701077,276.09666 L438.701077,221.644721 L485.03845,248.870691 L438.701077,276.09666 Z" id="Fill-51" fill="#A05598"></path>
                <path d="M530.771106,276.09666 L530.771106,221.644721 L577.108478,248.870691 L530.771106,276.09666 Z" id="Fill-52" fill="#A05598"></path>
                <path d="M959.368774,962.455526 L959.368774,908.003588 L1005.70615,935.229557 L959.368774,962.455526 Z" id="Fill-53" fill="#A05598" transform="translate(982.537460, 935.229557) scale(-1, -1) translate(-982.537460, -935.229557) "></path>
                <path d="M484.735807,357.560132 L484.735807,303.108194 L531.073179,330.334163 L484.735807,357.560132 Z" id="Fill-54" fill="#A05598"></path>
                <path d="M553.840999,792.584439 L553.840999,739.1325 L507.503626,765.858469 L553.840999,792.584439 Z" id="Fill-60" fill="#59B0A0"></path>
                <path d="M531.072894,276.09666 L531.072894,221.644721 L484.735522,248.870691 L531.072894,276.09666 Z" id="Fill-63" fill="#59B0A0"></path>
                <path d="M623.417522,276.09666 L623.417522,221.644721 L577.08015,248.870691 L623.417522,276.09666 Z" id="Fill-64" fill="#59B0A0"></path>
                <path d="M531.072894,439.483802 L531.072894,385.031863 L484.735522,412.257833 L531.072894,439.483802 Z" id="Fill-65" fill="#59B0A0"></path>
                <path d="M623.417522,439.483802 L623.417522,385.031863 L577.08015,412.257833 L623.417522,439.483802 Z" id="Fill-66" fill="#59B0A0"></path>
                <path d="M392.833186,357.560132 L392.833186,303.108194 L346.495814,330.334163 L392.833186,357.560132 Z" id="Fill-67" fill="#59B0A0"></path>
                <path d="M577.10677,357.560132 L577.10677,303.108194 L530.769397,330.334163 L577.10677,357.560132 Z" id="Fill-69" fill="#59B0A0"></path>
                <path d="M576.741207,248.527109 L576.741207,194.07517 L530.403835,221.30114 L576.741207,248.527109 Z" id="Fill-70" fill="#59B0A0"></path>
                <path d="M208.347496,357.774284 L208.347496,303.322345 L162.010124,330.548314 L208.347496,357.774284 Z" id="Fill-71" fill="#59B0A0"></path>
                <path d="M254.097946,385.031578 L300.435318,357.805609 L300.435318,412.257548 L254.097946,385.031578 Z" id="Fill-74" fill="#B0C535"></path>
                <path d="M300.359302,303.107909 L346.696674,275.881939 L346.696674,330.333878 L300.359302,303.107909 Z" id="Fill-76" fill="#FAF39D"></path>
                <path d="M392.698377,303.107909 L439.03575,275.881939 L439.03575,330.333878 L392.698377,303.107909 Z" id="Fill-77" fill="#FAF39D"></path>
                <path d="M484.735807,303.107909 L531.073179,275.881939 L531.073179,330.333878 L484.735807,303.107909 Z" id="Fill-78" fill="#FAF39D"></path>
                <path d="M577.080434,303.107909 L623.417806,275.881939 L623.417806,330.333878 L577.080434,303.107909 Z" id="Fill-79" fill="#FAF39D"></path>
                <path d="M0.474118968,428.547996 L46.8086441,401.323451 L0.474118968,374.096057 L0.474118968,428.547996 Z" id="Fill-81" fill="#B0C535"></path>
                <path d="M300.434322,303.45206 L254.09695,276.226091 L254.09695,330.67803 L300.434322,303.45206 Z" id="Fill-82" fill="#B0C535"></path>
                <path d="M485.037453,303.107909 L438.700081,275.881939 L438.700081,330.333878 L485.037453,303.107909 Z" id="Fill-84" fill="#B0C535"></path>
                <path d="M577.10677,303.107909 L530.769397,275.881939 L530.769397,330.333878 L577.10677,303.107909 Z" id="Fill-85" fill="#B0C535"></path>
                <path d="M208.002147,357.903572 L254.339519,330.677602 L254.339519,385.129541 L208.002147,357.903572 Z" id="Fill-90" fill="#DD73A7"></path>
                <path d="M438.701077,276.09666 L485.03845,248.870691 L485.03845,303.32263 L438.701077,276.09666 Z" id="Fill-92" fill="#DD73A7"></path>
                <path d="M959.368774,962.455526 L1005.70615,935.229557 L1005.70615,989.680072 L959.368774,962.455526 Z" id="Fill-93" fill="#DD73A7" transform="translate(982.537460, 962.454815) scale(-1, -1) translate(-982.537460, -962.454815) "></path>
                <path d="M439.035465,276.09666 L392.698093,248.870691 L392.698093,303.32263 L439.035465,276.09666 Z" id="Fill-99" fill="#308099"></path>
                <path d="M623.417522,276.09666 L577.08015,248.870691 L577.08015,303.32263 L623.417522,276.09666 Z" id="Fill-100" fill="#308099"></path>
                <path d="M959.670562,962.455526 L913.33319,935.229557 L913.33319,989.680072 L959.670562,962.455526 Z" id="Fill-102" fill="#308099" transform="translate(936.501876, 962.454815) scale(-1, -1) translate(-936.501876, -962.454815) "></path>
                <path d="M392.833186,357.560132 L346.495814,330.334163 L346.495814,384.786102 L392.833186,357.560132 Z" id="Fill-103" fill="#308099"></path>
                <g id="Group" transform="translate(1400.433348, 122.962720) scale(-1, -1) translate(-1400.433348, -122.962720) translate(939.433348, -0.037280)">
                    <path d="M369.790566,55.5374267 L369.790566,-0.168948561 L417.197011,27.684951 L369.790566,55.5374267 Z" id="Fill-1" fill="#A05598"></path>
                    <path d="M511.105245,139.229837 L511.105245,83.5234622 L558.510266,111.377362 L511.105245,139.229837 Z" id="Fill-2" fill="#A05598"></path>
                    <path d="M464.053545,55.5374267 L464.053545,-0.168948561 L511.458566,27.684951 L464.053545,55.5374267 Z" id="Fill-3" fill="#A05598"></path>
                    <path d="M780.325079,82.3269776 L780.325079,26.6206023 L827.7301,54.4745019 L780.325079,82.3269776 Z" id="Fill-4" fill="#A05598"></path>
                    <path d="M652.992611,55.5374267 L652.992611,-0.168948561 L605.58759,27.684951 L652.992611,55.5374267 Z" id="Fill-7" fill="#59B0A0"></path>
                    <path d="M369.989291,55.5374267 L369.989291,-0.168948561 L322.584271,27.684951 L369.989291,55.5374267 Z" id="Fill-8" fill="#59B0A0"></path>
                    <path d="M558.508558,55.5374267 L558.508558,-0.168948561 L511.103537,27.684951 L558.508558,55.5374267 Z" id="Fill-9" fill="#59B0A0"></path>
                    <path d="M700.010858,138.87814 L700.010858,83.1717643 L652.604414,111.025664 L700.010858,138.87814 Z" id="Fill-10" fill="#59B0A0"></path>
                    <path d="M416.696212,138.87814 L464.101233,111.025664 L464.101233,166.730615 L416.696212,138.87814 Z" id="Fill-13" fill="#DD73A7"></path>
                    <path d="M605.589298,83.1716219 L652.994319,55.3191462 L652.994319,111.024098 L605.589298,83.1716219 Z" id="Fill-15" fill="#FAF39D"></path>
                    <path d="M416.696212,83.3906144 L464.101233,55.5381387 L464.101233,111.24309 L416.696212,83.3906144 Z" id="Fill-16" fill="#FAF39D"></path>
                    <path d="M605.621328,83.5234622 L558.214883,55.6709865 L558.214883,111.375938 L605.621328,83.5234622 Z" id="Fill-18" fill="#B0C535"></path>
                    <path d="M511.456858,83.3906144 L464.051837,55.5381387 L464.051837,111.24309 L511.456858,83.3906144 Z" id="Fill-22" fill="#B0C535"></path>
                    <path d="M369.790566,55.5374267 L417.197011,27.684951 L417.197011,83.3899024 L369.790566,55.5374267 Z" id="Fill-24" fill="#308099"></path>
                    <path d="M416.696212,194.086727 L464.101233,166.234251 L464.101233,221.940627 L416.696212,194.086727 Z" id="Fill-27" fill="#59B0A0"></path>
                    <path d="M464.053545,55.5374267 L511.458566,27.684951 L511.458566,83.3899024 L464.053545,55.5374267 Z" id="Fill-28" fill="#DD73A7"></path>
                    <path d="M787.730432,200.245996 L787.730432,144.539621 L740.325411,116.687145 L740.325411,172.39352 L787.730432,200.245996 Z" id="Fill-29" fill="#A05598"></path>
                    <path d="M369.989291,55.5374267 L322.584271,27.684951 L322.584271,83.3899024 L369.989291,55.5374267 Z" id="Fill-32" fill="#B0C535"></path>
                    <path d="M558.508558,55.5374267 L511.103537,27.684951 L511.103537,83.3899024 L558.508558,55.5374267 Z" id="Fill-33" fill="#308099"></path>
                    <path d="M875.132985,82.3269776 L827.727964,54.4745019 L827.727964,110.179453 L875.132985,82.3269776 Z" id="Fill-34" fill="#B0C535"></path>
                    <path d="M922.140129,109.541983 L874.733685,81.6895074 L874.733685,137.394459 L922.140129,109.541983 Z" id="Fill-35" fill="#308099"></path>
                    <path d="M700.010858,138.87814 L652.604414,111.025664 L652.604414,166.730615 L700.010858,138.87814 Z" id="Fill-40" fill="#308099"></path>
                    <path d="M700.313928,82.728084 L700.313928,27.0217087 L747.718949,54.8756083 L700.313928,82.728084 Z" id="Fill-44" fill="#FAF39D"></path>
                    <path d="M137.841776,82.742038 L137.841776,28.2900991 L184.179148,55.5160686 L137.841776,82.742038 Z" id="Fill-51" fill="#A05598"></path>
                    <path d="M229.911804,82.742038 L229.911804,28.2900991 L276.249176,55.5160686 L229.911804,82.742038 Z" id="Fill-52" fill="#A05598"></path>
                    <path d="M183.876505,164.20551 L183.876505,109.753571 L230.213877,136.979541 L183.876505,164.20551 Z" id="Fill-54" fill="#A05598"></path>
                    <path d="M230.213593,82.742038 L230.213593,28.2900991 L183.87622,55.5160686 L230.213593,82.742038 Z" id="Fill-63" fill="#59B0A0"></path>
                    <path d="M322.55822,82.742038 L322.55822,28.2900991 L276.220848,55.5160686 L322.55822,82.742038 Z" id="Fill-64" fill="#59B0A0"></path>
                    <path d="M230.213593,246.12918 L230.213593,191.677241 L183.87622,218.90321 L230.213593,246.12918 Z" id="Fill-65" fill="#59B0A0"></path>
                    <path d="M322.55822,246.12918 L322.55822,191.677241 L276.220848,218.90321 L322.55822,246.12918 Z" id="Fill-66" fill="#59B0A0"></path>
                    <path d="M91.9738841,164.20551 L91.9738841,109.753571 L45.6365119,136.979541 L91.9738841,164.20551 Z" id="Fill-67" fill="#59B0A0"></path>
                    <path d="M276.247468,164.20551 L276.247468,109.753571 L229.910096,136.979541 L276.247468,164.20551 Z" id="Fill-69" fill="#59B0A0"></path>
                    <path d="M275.881905,55.1724868 L275.881905,0.720547966 L229.544533,27.9465174 L275.881905,55.1724868 Z" id="Fill-70" fill="#59B0A0"></path>
                    <path d="M-0.5,109.753287 L45.8373722,82.5273172 L45.8373722,136.979256 L-0.5,109.753287 Z" id="Fill-76" fill="#FAF39D"></path>
                    <path d="M91.8390757,109.753287 L138.176448,82.5273172 L138.176448,136.979256 L91.8390757,109.753287 Z" id="Fill-77" fill="#FAF39D"></path>
                    <path d="M183.876505,109.753287 L230.213877,82.5273172 L230.213877,136.979256 L183.876505,109.753287 Z" id="Fill-78" fill="#FAF39D"></path>
                    <path d="M276.221133,109.753287 L322.558505,82.5273172 L322.558505,136.979256 L276.221133,109.753287 Z" id="Fill-79" fill="#FAF39D"></path>
                    <path d="M184.178151,109.753287 L137.840779,82.5273172 L137.840779,136.979256 L184.178151,109.753287 Z" id="Fill-84" fill="#B0C535"></path>
                    <path d="M276.247468,109.753287 L229.910096,82.5273172 L229.910096,136.979256 L276.247468,109.753287 Z" id="Fill-85" fill="#B0C535"></path>
                    <path d="M137.841776,82.742038 L184.179148,55.5160686 L184.179148,109.968007 L137.841776,82.742038 Z" id="Fill-92" fill="#DD73A7"></path>
                    <path d="M138.176163,82.742038 L91.838791,55.5160686 L91.838791,109.968007 L138.176163,82.742038 Z" id="Fill-99" fill="#308099"></path>
                    <path d="M322.55822,82.742038 L276.220848,55.5160686 L276.220848,109.968007 L322.55822,82.742038 Z" id="Fill-100" fill="#308099"></path>
                    <path d="M91.9738841,164.20551 L45.6365119,136.979541 L45.6365119,191.43148 L91.9738841,164.20551 Z" id="Fill-103" fill="#308099"></path>
                </g>
                <path d="M208.347496,357.774284 L162.010124,330.548314 L162.010124,385.000253 L208.347496,357.774284 Z" id="Fill-105" fill="#308099"></path>
            </g>
            <path d="M586.51663,462.59158 L539.111609,434.737681 L539.111609,490.444056 L586.51663,462.59158 Z" id="Fill-39" fill="#B0C535" sketch:type="MSShapeGroup"></path>
            <path d="M538.668202,318.451996 L538.668202,252.374447 L598.875807,285.412377 L538.668202,318.451996 Z" id="Fill-8" fill="#B0C535" sketch:type="MSShapeGroup"></path>
            <path d="M493.918086,455.667732 L554.125691,422.628113 L554.125691,488.705662 L493.918086,455.667732 Z" id="Fill-34" fill="#A05598" sketch:type="MSShapeGroup"></path>
            <path d="M570.188223,351.791199 L630.395827,318.75158 L630.395827,384.829129 L570.188223,351.791199 Z" id="Fill-35" fill="#DD73A7" sketch:type="MSShapeGroup"></path>
            <path d="M466.418745,601.379455 L406.21114,568.339836 L406.21114,634.417385 L466.418745,601.379455 Z" id="Fill-46" fill="#308099" sketch:type="MSShapeGroup"></path>
            <path d="M466.511826,559.485467 L526.719431,526.445848 L526.719431,592.523397 L466.511826,559.485467 Z" id="Fill-47" fill="#59B0A0" sketch:type="MSShapeGroup"></path>
            <path d="M58.3860181,688.250395 L58.3860181,624.626793 L-0.206826234,656.438594 L58.3860181,688.250395 Z" id="Fill-62" fill="#59B0A0" sketch:type="MSShapeGroup" transform="translate(29.089596, 656.438594) scale(1, -1) translate(-29.089596, -656.438594) "></path>
            <path d="M1140.93845,550.448052 L1140.93845,495.996113 L1187.27582,523.222083 L1140.93845,550.448052 Z" id="Fill-50" fill="#A05598" sketch:type="MSShapeGroup"></path>
            <path d="M1142.51928,538.455574 L1142.51928,484.003635 L1096.18191,511.229604 L1142.51928,538.455574 Z" id="Fill-61" fill="#59B0A0" sketch:type="MSShapeGroup"></path>
            <path d="M1083.8143,550.8248 L1037.47693,523.598831 L1037.47693,578.050769 L1083.8143,550.8248 Z" id="Fill-102" fill="#308099" sketch:type="MSShapeGroup"></path>
        </g>
    </g>
</svg>