<?xml version="1.0" encoding="UTF-8" standalone="no"?>
<svg width="65px" height="44px" viewBox="0 0 65 44" version="1.1" xmlns="http://www.w3.org/2000/svg" xmlns:xlink="http://www.w3.org/1999/xlink" xmlns:sketch="http://www.bohemiancoding.com/sketch/ns">
    <!-- Generator: Sketch 3.1.1 (8761) - http://www.bohemiancoding.com/sketch -->
    <title>du_logo_vit</title>
    <desc>Created with Sketch.</desc>
    <defs>
        <path id="path-1" d="M0.0107142857,-0.0689079498 L64.8633929,-0.0689079498 L64.8633929,42.8092887 L0.0107142857,42.8092887 L0.0107142857,-0.0689079498 Z"></path>
        <path id="path-3" d="M0.0107142857,-0.0689079498 L64.8633929,-0.0689079498 L64.8633929,42.8092887 L0.0107142857,42.8092887"></path>
        <path id="path-5" d="M0.0107142857,-0.0689079498 L64.8633929,-0.0689079498 L64.8633929,42.8092887 L0.0107142857,42.8092887 L0.0107142857,-0.0689079498 Z"></path>
    </defs>
    <g id="Page-1" stroke="none" stroke-width="1" fill="none" fill-rule="evenodd" sketch:type="MSPage">
        <g id="du_logo_vit" sketch:type="MSLayerGroup" transform="translate(0.000000, 1.000000)">
            <g>
                <g id="Group-3">
                    <mask id="mask-2" sketch:name="Clip 2" fill="white">
                        <use xlink:href="#path-1"></use>
                    </mask>
                    <g id="Clip-2"></g>
                    <path d="M0.689285714,35.5113431 L1.25732143,35.5113431 C1.82571429,35.5113431 2.06178571,35.1340586 2.06178571,33.8611506 C2.06178571,32.6364603 1.85625,32.2107782 1.25732143,32.2107782 L0.689285714,32.2107782 L0.689285714,35.5113431 L0.689285714,35.5113431 Z M0,31.6865021 L1.22767857,31.6865021 C2.58125,31.6865021 2.75053571,32.5765481 2.75053571,33.8611506 C2.75053571,35.1457531 2.58125,36.0352594 1.22767857,36.0352594 L0,36.0352594 L0,31.6865021 L0,31.6865021 Z" id="Fill-1" fill="#FFFFFF" sketch:type="MSShapeGroup" mask="url(#mask-2)"></path>
                </g>
                <path d="M3.71035714,31.6865021 L4.39910714,31.6865021 L4.39910714,36.0352594 L3.71035714,36.0352594 L3.71035714,31.6865021 Z" id="Fill-4" fill="#FFFFFF" sketch:type="MSShapeGroup"></path>
                <path d="M5.98142857,34.6887657 L5.98142857,34.7986946 C5.98142857,35.328728 6.21678571,35.5962636 6.68821429,35.5962636 C7.11732143,35.5962636 7.34160714,35.2796109 7.34160714,34.9640377 C7.34160714,34.5061506 7.11160714,34.305364 6.72410714,34.1900377 L6.25303571,34.0257741 C5.62446429,33.7823473 5.35232143,33.4531004 5.35232143,32.8320293 C5.35232143,32.0398577 5.89035714,31.6014017 6.69446429,31.6014017 C7.80017857,31.6014017 7.91517857,32.2960586 7.91517857,32.7471088 L7.91517857,32.8440837 L7.22660714,32.8440837 L7.22660714,32.7528661 C7.22660714,32.35741 7.05732143,32.1256778 6.62232143,32.1256778 C6.32535714,32.1256778 6.04125,32.2895816 6.04125,32.7528661 C6.04125,33.1236736 6.22946429,33.3127657 6.68821429,33.4903431 L7.15428571,33.660364 C7.76428571,33.8791423 8.03017857,34.208749 8.03017857,34.8111088 C8.03017857,35.7365983 7.47428571,36.1203598 6.60428571,36.1203598 C5.53339286,36.1203598 5.29178571,35.401954 5.29178571,34.7929372 L5.29178571,34.6887657 L5.98142857,34.6887657" id="Fill-5" fill="#FFFFFF" sketch:type="MSShapeGroup"></path>
                <path d="M8.93660714,31.6865021 L9.62607143,31.6865021 L9.62607143,33.5815607 L9.63803571,33.5815607 L10.94375,31.6865021 L11.6989286,31.6865021 L10.4544643,33.5198494 L11.8323214,36.0352594 L11.0525,36.0352594 L10.0066071,34.0811883 L9.62607143,34.6283138 L9.62607143,36.0352594 L8.93660714,36.0352594 L8.93660714,31.6865021" id="Fill-6" fill="#FFFFFF" sketch:type="MSShapeGroup"></path>
                <path d="M13.7998214,33.6242008 C14.2410714,33.6242008 14.4891071,33.3552259 14.4891071,32.9169498 C14.4891071,32.454205 14.2955357,32.2107782 13.8357143,32.2107782 L13.2498214,32.2107782 L13.2498214,33.6242008 L13.7998214,33.6242008 L13.7998214,33.6242008 Z M12.5603571,31.6865021 L14.0839286,31.6865021 C14.6883929,31.6865021 15.1782143,31.9982971 15.1782143,32.8081004 C15.1782143,33.3674603 14.93625,33.8003389 14.4589286,33.8737448 L14.4589286,33.8854393 C14.8939286,33.9278996 15.1119643,34.165569 15.1355357,34.7749456 C15.1417857,35.0608326 15.1417857,35.395477 15.1596429,35.6579749 C15.1782143,35.8704561 15.2746429,35.9683305 15.3653571,36.0352594 L14.5858929,36.0352594 C14.5189286,35.956636 14.4891071,35.8215188 14.4710714,35.6516778 C14.4589286,35.5241172 14.4530357,35.3902594 14.4530357,35.2616192 C14.4530357,35.1340586 14.4469643,34.9874268 14.4403571,34.8291004 C14.4225,34.354841 14.2775,34.1479372 13.8125,34.1479372 L13.2498214,34.1479372 L13.2498214,36.0352594 L12.5603571,36.0352594 L12.5603571,31.6865021 L12.5603571,31.6865021 Z" id="Fill-7" fill="#FFFFFF" sketch:type="MSShapeGroup"></path>
                <path d="M16.1780357,31.6865021 L16.8666071,31.6865021 L16.8666071,36.0352594 L16.1780357,36.0352594 L16.1780357,31.6865021 Z" id="Fill-8" fill="#FFFFFF" sketch:type="MSShapeGroup"></path>
                <path d="M17.91875,31.6865021 L18.995,31.6865021 L19.7564286,34.9088033 L19.7682143,34.9088033 L20.5183929,31.6865021 L21.57,31.6865021 L21.57,36.0352594 L20.9171429,36.0352594 L20.9171429,32.4182218 L20.9042857,32.4182218 L20.0344643,36.0352594 L19.4542857,36.0352594 L18.58375,32.4182218 L18.5714286,32.4182218 L18.5714286,36.0352594 L17.91875,36.0352594 L17.91875,31.6865021" id="Fill-9" fill="#FFFFFF" sketch:type="MSShapeGroup"></path>
                <path d="M22.63,31.6865021 L23.3196429,31.6865021 L23.3196429,36.0352594 L22.63,36.0352594 L22.63,31.6865021 Z" id="Fill-10" fill="#FFFFFF" sketch:type="MSShapeGroup"></path>
                <path d="M24.37125,31.6865021 L25.21125,31.6865021 L26.4625,34.9278745 L26.4746429,34.9278745 L26.4746429,31.6865021 L27.1276786,31.6865021 L27.1276786,36.0352594 L26.2869643,36.0352594 L25.03625,32.7095063 L25.0233929,32.7095063 L25.0233929,36.0352594 L24.37125,36.0352594 L24.37125,31.6865021" id="Fill-11" fill="#FFFFFF" sketch:type="MSShapeGroup"></path>
                <path d="M28.2007143,31.6865021 L30.5335714,31.6865021 L30.5335714,32.27141 L28.8889286,32.27141 L28.8889286,33.477569 L30.4366071,33.477569 L30.4366071,34.0619372 L28.8889286,34.0619372 L28.8889286,35.4507113 L30.5821429,35.4507113 L30.5821429,36.0352594 L28.2007143,36.0352594 L28.2007143,31.6865021" id="Fill-12" fill="#FFFFFF" sketch:type="MSShapeGroup"></path>
                <path d="M32.6905357,33.6242008 C33.1317857,33.6242008 33.3796429,33.3552259 33.3796429,32.9169498 C33.3796429,32.454205 33.1858929,32.2107782 32.7264286,32.2107782 L32.1403571,32.2107782 L32.1403571,33.6242008 L32.6905357,33.6242008 L32.6905357,33.6242008 Z M31.4510714,31.6865021 L32.9746429,31.6865021 C33.5789286,31.6865021 34.0689286,31.9982971 34.0689286,32.8081004 C34.0689286,33.3674603 33.8267857,33.8003389 33.3491071,33.8737448 L33.3491071,33.8854393 C33.7839286,33.9278996 34.0019643,34.165569 34.0260714,34.7749456 C34.0325,35.0608326 34.0325,35.395477 34.0501786,35.6579749 C34.0689286,35.8704561 34.1660714,35.9683305 34.2560714,36.0352594 L33.4766071,36.0352594 C33.4096429,35.956636 33.3796429,35.8215188 33.3617857,35.6516778 C33.3491071,35.5241172 33.34375,35.3902594 33.34375,35.2616192 C33.34375,35.1340586 33.3375,34.9874268 33.3310714,34.8291004 C33.3125,34.354841 33.1682143,34.1479372 32.7030357,34.1479372 L32.1403571,34.1479372 L32.1403571,36.0352594 L31.4510714,36.0352594 L31.4510714,31.6865021 L31.4510714,31.6865021 Z" id="Fill-13" fill="#FFFFFF" sketch:type="MSShapeGroup"></path>
                <path d="M35.0680357,31.6865021 L35.7575,31.6865021 L35.7575,36.0352594 L35.0680357,36.0352594 L35.0680357,31.6865021 Z" id="Fill-14" fill="#FFFFFF" sketch:type="MSShapeGroup"></path>
                <path d="M36.8094643,31.6865021 L37.6498214,31.6865021 L38.90125,34.9278745 L38.9130357,34.9278745 L38.9130357,31.6865021 L39.5651786,31.6865021 L39.5651786,36.0352594 L38.7264286,36.0352594 L37.4744643,32.7095063 L37.4621429,32.7095063 L37.4621429,36.0352594 L36.8094643,36.0352594 L36.8094643,31.6865021" id="Fill-15" fill="#FFFFFF" sketch:type="MSShapeGroup"></path>
                <path d="M42.7725,35.5295146 L42.7598214,35.5295146 C42.5732143,35.9373849 42.3251786,36.1203598 41.8167857,36.1203598 C40.8744643,36.1203598 40.5355357,35.4145481 40.5355357,33.8611506 C40.5355357,32.3086527 40.9710714,31.6014017 41.9682143,31.6014017 C43.0508929,31.6014017 43.2316071,32.460682 43.2316071,32.8557782 L43.2316071,32.9356611 L42.5794643,32.9356611 L42.5794643,32.8320293 C42.5794643,32.5094393 42.4467857,32.1256778 41.9744643,32.1256778 C41.4851786,32.1256778 41.2251786,32.454205 41.2251786,33.8429791 C41.2251786,35.2436276 41.4551786,35.5962636 41.9201786,35.5962636 C42.4467857,35.6029205 42.64,35.219159 42.64,34.2690209 L41.9144643,34.2690209 L41.9144643,33.7452845 L43.2925,33.7452845 L43.2925,36.0352594 L42.7725,36.0352594 L42.7725,35.5295146" id="Fill-16" fill="#FFFFFF" sketch:type="MSShapeGroup"></path>
                <path d="M44.8066071,34.6887657 L44.8066071,34.7986946 C44.8066071,35.328728 45.0426786,35.5962636 45.5141071,35.5962636 C45.9426786,35.5962636 46.1667857,35.2796109 46.1667857,34.9640377 C46.1667857,34.5061506 45.9369643,34.305364 45.5505357,34.1900377 L45.0783929,34.0257741 C44.4498214,33.7823473 44.1778571,33.4531004 44.1778571,32.8320293 C44.1778571,32.0398577 44.7164286,31.6014017 45.52,31.6014017 C46.62625,31.6014017 46.7410714,32.2960586 46.7410714,32.7471088 L46.7410714,32.8440837 L46.0517857,32.8440837 L46.0517857,32.7528661 C46.0517857,32.35741 45.8821429,32.1256778 45.4475,32.1256778 C45.1510714,32.1256778 44.8669643,32.2895816 44.8669643,32.7528661 C44.8669643,33.1236736 45.0546429,33.3127657 45.5141071,33.4903431 L45.9791071,33.660364 C46.5903571,33.8791423 46.8560714,34.208749 46.8560714,34.8111088 C46.8560714,35.7365983 46.3003571,36.1203598 45.4292857,36.1203598 C44.3591071,36.1203598 44.1182143,35.401954 44.1182143,34.7929372 L44.1182143,34.6887657 L44.8066071,34.6887657" id="Fill-17" fill="#FFFFFF" sketch:type="MSShapeGroup"></path>
                <path d="M49.1348214,35.5113431 C49.5451786,35.5113431 49.7696429,35.2499247 49.7696429,34.7445397 C49.7696429,34.2749582 49.4971429,34.0072427 49.0916071,34.0072427 L48.4508929,34.0072427 L48.4508929,35.5113431 L49.1348214,35.5113431 L49.1348214,35.5113431 Z M48.9955357,33.5198494 C49.4121429,33.5198494 49.6298214,33.2458368 49.6298214,32.8320293 C49.6298214,32.3140502 49.3214286,32.2107782 48.9348214,32.2107782 L48.4508929,32.2107782 L48.4508929,33.5198494 L48.9955357,33.5198494 L48.9955357,33.5198494 Z M47.7626786,31.6865021 L49.1589286,31.6865021 C49.8053571,31.6865021 50.3185714,31.9794059 50.3185714,32.7399121 C50.3185714,33.2640084 50.1080357,33.5932552 49.6841071,33.727113 L49.6841071,33.7389874 C50.1557143,33.8249874 50.4582143,34.1108745 50.4582143,34.8483515 C50.4582143,35.578272 49.9383929,36.0352594 49.1278571,36.0352594 L47.7626786,36.0352594 L47.7626786,31.6865021 L47.7626786,31.6865021 Z" id="Fill-18" fill="#FFFFFF" sketch:type="MSShapeGroup"></path>
                <path d="M52.0530357,34.3364895 L50.94125,31.6865021 L51.7080357,31.6865021 L52.4341071,33.563749 L53.1776786,31.6865021 L53.8971429,31.6865021 L52.7428571,34.3364895 L52.7428571,36.0352594 L52.0530357,36.0352594 L52.0530357,34.3364895" id="Fill-19" fill="#FFFFFF" sketch:type="MSShapeGroup"></path>
                <path d="M55.9092857,33.6242008 C56.3501786,33.6242008 56.5985714,33.3552259 56.5985714,32.9169498 C56.5985714,32.454205 56.4044643,32.2107782 55.9457143,32.2107782 L55.3589286,32.2107782 L55.3589286,33.6242008 L55.9092857,33.6242008 L55.9092857,33.6242008 Z M54.6696429,31.6865021 L56.1935714,31.6865021 C56.7985714,31.6865021 57.2873214,31.9982971 57.2873214,32.8081004 C57.2873214,33.3674603 57.0451786,33.8003389 56.5678571,33.8737448 L56.5678571,33.8854393 C57.0041071,33.9278996 57.2208929,34.165569 57.2451786,34.7749456 C57.2514286,35.0608326 57.2514286,35.395477 57.2692857,35.6579749 C57.2873214,35.8704561 57.3842857,35.9683305 57.4751786,36.0352594 L56.6951786,36.0352594 C56.62875,35.956636 56.5985714,35.8215188 56.5801786,35.6516778 C56.5678571,35.5241172 56.5621429,35.3902594 56.5621429,35.2616192 C56.5621429,35.1340586 56.5557143,34.9874268 56.55,34.8291004 C56.5323214,34.354841 56.3866071,34.1479372 55.9210714,34.1479372 L55.3589286,34.1479372 L55.3589286,36.0352594 L54.6696429,36.0352594 L54.6696429,31.6865021 L54.6696429,31.6865021 Z" id="Fill-20" fill="#FFFFFF" sketch:type="MSShapeGroup"></path>
                <path d="M59.7519643,31.2237573 C59.9392857,31.2237573 60.0905357,31.0719079 60.0905357,30.882636 C60.0905357,30.6944435 59.9392857,30.5415146 59.7519643,30.5415146 C59.5648214,30.5415146 59.4139286,30.6944435 59.4139286,30.882636 C59.4139286,31.0719079 59.5648214,31.2237573 59.7519643,31.2237573 L59.7519643,31.2237573 Z M60.2471429,34.4152929 L59.7519643,32.27141 L59.7394643,32.27141 L59.22625,34.4152929 L60.2471429,34.4152929 L60.2471429,34.4152929 Z M59.7519643,30.2498703 C60.1141071,30.2498703 60.39375,30.517046 60.39375,30.882636 C60.39375,31.2482259 60.1141071,31.5161213 59.7519643,31.5161213 C59.3896429,31.5161213 59.11125,31.2482259 59.11125,30.882636 C59.11125,30.517046 59.3896429,30.2498703 59.7519643,30.2498703 L59.7519643,30.2498703 Z M59.3291071,31.6865021 L60.21125,31.6865021 L61.3476786,36.0352594 L60.6285714,36.0352594 L60.3621429,34.9694351 L59.0992857,34.9694351 L58.82125,36.0352594 L58.1014286,36.0352594 L59.3291071,31.6865021 L59.3291071,31.6865021 Z" id="Fill-21" fill="#FFFFFF" sketch:type="MSShapeGroup"></path>
                <g id="Group-25">
                    <mask id="mask-4" sketch:name="Clip 23" fill="white">
                        <use xlink:href="#path-3"></use>
                    </mask>
                    <g id="Clip-23"></g>
                    <path d="M62.1069643,31.6865021 L62.9469643,31.6865021 L64.1983929,34.9278745 L64.2105357,34.9278745 L64.2105357,31.6865021 L64.8633929,31.6865021 L64.8633929,36.0352594 L64.0230357,36.0352594 L62.7721429,32.7095063 L62.76,32.7095063 L62.76,36.0352594 L62.1069643,36.0352594 L62.1069643,31.6865021" id="Fill-22" fill="#FFFFFF" sketch:type="MSShapeGroup" mask="url(#mask-4)"></path>
                    <path d="M21.3764286,38.3856862 L21.3764286,41.5034561 C21.3764286,42.0579582 21.5941071,42.2950879 22.0114286,42.2950879 C22.4221429,42.2950879 22.64,42.0579582 22.64,41.5034561 L22.64,38.3856862 L23.3291071,38.3856862 L23.3291071,41.4493013 C23.3291071,42.4543138 22.8335714,42.8200837 22.0114286,42.8200837 C21.1830357,42.8200837 20.6876786,42.4543138 20.6876786,41.4493013 L20.6876786,38.3856862 L21.3764286,38.3856862" id="Fill-24" fill="#FFFFFF" sketch:type="MSShapeGroup" mask="url(#mask-4)"></path>
                </g>
                <path d="M25.0582143,40.4142427 L25.5482143,40.4142427 C25.9171429,40.4142427 26.2375,40.2186736 26.2375,39.6650711 C26.2375,39.1954895 26.0501786,38.9096025 25.5001786,38.9096025 L25.0582143,38.9096025 L25.0582143,40.4142427 L25.0582143,40.4142427 Z M24.3696429,38.3856862 L25.7358929,38.3856862 C26.5639286,38.3856862 26.9266071,38.9096025 26.9266071,39.6521172 C26.9266071,40.4322343 26.4675,40.9379791 25.6632143,40.9379791 L25.0582143,40.9379791 L25.0582143,42.7339038 L24.3696429,42.7339038 L24.3696429,38.3856862 L24.3696429,38.3856862 Z" id="Fill-26" fill="#FFFFFF" sketch:type="MSShapeGroup"></path>
                <g id="Group-30">
                    <mask id="mask-6" sketch:name="Clip 28" fill="white">
                        <use xlink:href="#path-5"></use>
                    </mask>
                    <g id="Clip-28"></g>
                    <path d="M28.4555357,40.4142427 L28.9448214,40.4142427 C29.3132143,40.4142427 29.6333929,40.2186736 29.6333929,39.6650711 C29.6333929,39.1954895 29.44625,38.9096025 28.8960714,38.9096025 L28.4555357,38.9096025 L28.4555357,40.4142427 L28.4555357,40.4142427 Z M27.7657143,38.3856862 L29.1321429,38.3856862 C29.9596429,38.3856862 30.3232143,38.9096025 30.3232143,39.6521172 C30.3232143,40.4322343 29.8633929,40.9379791 29.0596429,40.9379791 L28.4555357,40.9379791 L28.4555357,42.7339038 L27.7657143,42.7339038 L27.7657143,38.3856862 L27.7657143,38.3856862 Z" id="Fill-27" fill="#FFFFFF" sketch:type="MSShapeGroup" mask="url(#mask-6)"></path>
                    <path d="M31.7428571,41.3886695 L31.7428571,41.497159 C31.7428571,42.028272 31.9791071,42.2950879 32.4510714,42.2950879 C32.8796429,42.2950879 33.1032143,41.9793347 33.1032143,41.6617824 C33.1032143,41.2058745 32.8732143,41.0050879 32.4869643,40.8892218 L32.0155357,40.7245983 C31.3867857,40.4811715 31.1142857,40.1530042 31.1142857,39.5312134 C31.1142857,38.7383222 31.6525,38.2996862 32.4564286,38.2996862 C33.5632143,38.2996862 33.6780357,38.9947029 33.6780357,39.4450335 L33.6780357,39.5429079 L32.9882143,39.5429079 L32.9882143,39.4513305 C32.9882143,39.0562343 32.8191071,38.8234226 32.3839286,38.8234226 C32.0882143,38.8234226 31.8041071,38.9882259 31.8041071,39.4513305 C31.8041071,39.8233975 31.9910714,40.01141 32.4510714,40.1888075 L32.9155357,40.3588285 C33.5271429,40.5788661 33.7930357,40.9072134 33.7930357,41.5097531 C33.7930357,42.4363222 33.23625,42.8200837 32.3660714,42.8200837 C31.2958929,42.8200837 31.0544643,42.1005983 31.0544643,41.4917615 L31.0544643,41.3886695 L31.7428571,41.3886695" id="Fill-29" fill="#FFFFFF" sketch:type="MSShapeGroup" mask="url(#mask-6)"></path>
                </g>
                <path d="M36.4998214,41.1133975 L36.0046429,38.9700544 L35.9926786,38.9700544 L35.4789286,41.1133975 L36.4998214,41.1133975 L36.4998214,41.1133975 Z M35.5810714,38.3856862 L36.4633929,38.3856862 L37.6003571,42.7339038 L36.8810714,42.7339038 L36.6142857,41.6680795 L35.35125,41.6680795 L35.0733929,42.7339038 L34.3541071,42.7339038 L35.5810714,38.3856862 L35.5810714,38.3856862 Z" id="Fill-31" fill="#FFFFFF" sketch:type="MSShapeGroup"></path>
                <path d="M38.3196429,38.3856862 L39.0089286,38.3856862 L39.0089286,42.1493556 L40.6767857,42.1493556 L40.6767857,42.7339038 L38.3196429,42.7339038 L38.3196429,38.3856862" id="Fill-32" fill="#FFFFFF" sketch:type="MSShapeGroup"></path>
                <path d="M43.4321429,41.1133975 L42.9369643,38.9700544 L42.9242857,38.9700544 L42.4110714,41.1133975 L43.4321429,41.1133975 L43.4321429,41.1133975 Z M42.5141071,38.3856862 L43.39625,38.3856862 L44.5326786,42.7339038 L43.8132143,42.7339038 L43.5471429,41.6680795 L42.2842857,41.6680795 L42.00625,42.7339038 L41.2864286,42.7339038 L42.5141071,38.3856862 L42.5141071,38.3856862 Z" id="Fill-33" fill="#FFFFFF" sketch:type="MSShapeGroup"></path>
                <g id="Group-37" fill="#FFFFFF" sketch:type="MSShapeGroup">
                    <path d="M33.8521429,11.5356946 L33.3360714,8.58776569 C33.2548214,8.12304184 33.1892857,7.7146318 33.1419643,7.35246025 C32.8614286,5.19274477 33.2617857,4.71182845 35.1966071,4.18035565 C35.4244643,4.11792469 35.6739286,4.05441423 35.9455357,3.98766527 C35.9617857,3.98370711 35.9766071,3.97974895 35.9930357,3.97579079 C36.3060714,3.92019665 36.10625,2.77862762 35.7933929,2.83404184 L34.7589286,3.01791632 L33.8364286,3.18164017 L29.7003571,3.91659833 L28.6682143,4.09993305 L25.3625,4.68717992 C25.0496429,4.74277406 25.2494643,5.88470293 25.5623214,5.82892887 C28.6580357,5.56319247 29.0441071,5.69741004 29.6639286,9.24014226 L31.3657143,18.9628201 C31.5053571,19.7609289 31.6708929,20.5000251 31.86,21.1896444 C33.36625,19.0758075 33.9969643,16.3211088 33.9969643,13.654569 C33.9969643,12.9167322 33.9471429,12.209841 33.8521429,11.5356946" id="Fill-34"></path>
                    <path d="M52.1241071,-0.0669288703 L42.7475,1.59855649 C42.4346429,1.65415063 42.6342857,2.7960795 42.9473214,2.74048536 C45.7166071,2.45135983 46.6266071,2.81730962 47.0833929,4.27858996 C47.4925,5.46387866 47.89875,7.09625941 48.505,10.5605481 L49.0560714,13.7094435 C50.1998214,20.2434644 49.1948214,25.0893305 43.7642857,26.0544017 C40.47375,26.6389498 37.9973214,25.2872385 36.4239286,22.2883933 C35.8278571,23.0008619 35.1526786,23.6552176 34.3916071,24.2403054 C34.0833929,24.4763556 33.7603571,24.6972929 33.4280357,24.9094142 C34.2230357,26.161272 35.2071429,27.0876611 36.4039286,27.7274435 C38.3957143,28.7535063 40.7582143,28.9019372 43.1021429,28.485431 C45.6805357,28.0271841 48.1855357,26.6896862 49.6523214,24.4808536 C51.4657143,21.7232762 51.5767857,18.212749 50.7844643,13.6860544 L50.185,10.2620669 C49.5785714,6.79795816 49.4066071,5.12383682 49.3310714,4.00079916 C49.2119643,2.39864435 50.0458929,1.6417364 52.3239286,1.07446025 C52.6367857,1.01886611 52.4369643,-0.122523013 52.1241071,-0.0669288703" id="Fill-36"></path>
                </g>
                <path d="M35.7439286,4.7035523 C34.6346429,4.988 34.0533929,5.20641841 33.84875,5.54825941 C33.5930357,5.97717992 33.6930357,6.90806695 33.9673214,8.47567782 L34.3557143,10.6953054 C34.3805357,10.8194477 34.4001786,10.9464686 34.4217857,11.07241 C34.5628571,11.8978661 34.6378571,12.7607448 34.6378571,13.654569 C34.6378571,14.2747406 34.6057143,14.8841172 34.5423214,15.4796402 C34.2776786,17.9680628 33.4583929,20.2087406 32.0819643,21.9398954 C31.9267857,22.1351046 31.7644643,22.3236569 31.595,22.5057322 C29.84875,24.3797406 27.3494643,25.5256276 24.0853571,25.5256276 C21.2291071,25.5256276 20.0389286,24.7262594 20.0389286,21.7284937 L20.0389286,5.22081172 C20.0389286,3.7420795 20.1580357,3.26224268 20.5546429,2.94253138 C20.9117857,2.66294142 21.9033929,2.46287448 23.53,2.46287448 C25.49375,2.46287448 27.2617857,2.76945188 28.7557143,3.42866527 L32.935,2.68615063 C30.6671429,1.57426778 27.7673214,1.06384519 24.2442857,1.06384519 L12.9376786,1.06384519 C12.6091071,1.06384519 12.6091071,2.26298745 12.9376786,2.26298745 C15.9925,2.5028159 16.3098214,2.66294142 16.3098214,6.10024268 L16.3098214,22.0082636 C16.3098214,25.4058033 15.9526786,25.6456318 12.6203571,25.8852803 C12.3026786,25.8852803 12.3026786,27.0444812 12.6203571,27.0444812 L22.1414286,27.0444812 C26.2692857,27.0444812 29.7694643,26.2974686 32.5519643,24.6891967 C32.7380357,24.5816067 32.9208929,24.4700586 33.1001786,24.3547322 C33.4098214,24.1561046 33.7128571,23.9492008 34.0030357,23.7270042 C34.7907143,23.1215858 35.4973214,22.4290879 36.1153571,21.6543682 C36.2694643,21.4611381 36.4173214,21.2625105 36.5598214,21.0586653 C38.0335714,18.952205 38.8825,16.2858452 38.8825,13.0549079 C38.8825,9.45100418 37.5671429,6.62182008 35.7439286,4.7035523" id="Fill-38" fill="#FFFFFF" sketch:type="MSShapeGroup"></path>
            </g>
        </g>
    </g>
</svg>