<?xml version="1.0" encoding="UTF-8" standalone="no"?>
<svg width="50px" height="50px" viewBox="0 0 50 50" version="1.1" xmlns="http://www.w3.org/2000/svg" xmlns:xlink="http://www.w3.org/1999/xlink" xmlns:sketch="http://www.bohemiancoding.com/sketch/ns">
    <!-- Generator: Sketch 3.1.1 (8761) - http://www.bohemiancoding.com/sketch -->
    <title>Shape</title>
    <desc>Created with Sketch.</desc>
    <defs></defs>
    <g id="Page-1" stroke="none" stroke-width="1" fill="none" fill-rule="evenodd" sketch:type="MSPage">
        <path d="M0,25 C0,11.191 11.1915,0 25.0005,0 C38.807,0 50,11.191 50,25 C50,38.809 38.807,50 25.0005,50 C11.1915,50 0,38.809 0,25 Z M25.7805,29.4515 L11.836,19.433 L11.836,34.803 L39.7265,34.803 L39.7265,19.433 L25.7805,29.4515 Z M39.59,16.757 L11.9725,16.757 L25.7805,26.6595 L39.59,16.757 Z" id="Shape" fill="#5AB2A0" sketch:type="MSShapeGroup"></path>
    </g>
</svg>