<?xml version="1.0" encoding="UTF-8" standalone="no"?>
<svg width="40px" height="40px" viewBox="0 0 40 40" version="1.1" xmlns="http://www.w3.org/2000/svg" xmlns:xlink="http://www.w3.org/1999/xlink" xmlns:sketch="http://www.bohemiancoding.com/sketch/ns">
    <!-- Generator: Sketch 3.1.1 (8761) - http://www.bohemiancoding.com/sketch -->
    <title>Fill 1</title>
    <desc>Created with Sketch.</desc>
    <defs></defs>
    <g id="startpage" stroke="none" stroke-width="1" fill="none" fill-rule="evenodd" sketch:type="MSPage">
        <g id="ss12" sketch:type="MSArtboardGroup" transform="translate(-628.000000, -3097.000000)" fill="#FFFFFF" opacity="0.75">
            <g id="Group" sketch:type="MSLayerGroup" transform="translate(628.000000, 2965.000000)">
                <path d="M20,132 C8.953125,132 0,140.959425 0,152.014072 C0,161.264326 6.278125,169.02447 14.796875,171.318271 L14.796875,157.189586 L10,157.189586 L10,151.404269 L14.796875,151.404269 L14.796875,147.151278 C14.796875,142.194668 17.703125,139.505277 21.953125,139.505277 C23.984375,139.505277 25.734375,139.661637 26.25,139.739817 L26.25,144.899695 L23.296875,144.899695 C21,144.899695 20.546875,146.041123 20.546875,147.714174 L20.546875,151.404269 L26.0625,151.404269 L25.34375,157.189586 L20.546875,157.189586 L20.546875,172 C31.3390625,171.707607 40,162.882652 40,152.014072 C40,140.959425 31.046875,132 20,132" id="Fill-1" sketch:type="MSShapeGroup"></path>
            </g>
        </g>
    </g>
</svg>