<?xml version="1.0" encoding="UTF-8" standalone="no"?>
<svg width="40px" height="90px" viewBox="0 0 40 90" version="1.1" xmlns="http://www.w3.org/2000/svg" xmlns:xlink="http://www.w3.org/1999/xlink" xmlns:sketch="http://www.bohemiancoding.com/sketch/ns">
    <!-- Generator: Sketch 3.1.1 (8761) - http://www.bohemiancoding.com/sketch -->
    <title>Group</title>
    <desc>Created with Sketch.</desc>
    <defs></defs>
    <g id="Page-1" stroke="none" stroke-width="1" fill="none" fill-rule="evenodd" sketch:type="MSPage">
        <g id="Group" sketch:type="MSLayerGroup">
            <g sketch:type="MSShapeGroup">
                <g>
                    <g>
                        <g>
                            <g>
                                <g>
                                    <g>
                                        <rect id="Rectangle-1" fill="#A05599" x="0" y="0" width="40" height="40" rx="4"></rect>
                                        <path d="M18.2514447,30 L18.2514447,20.8770257 L15,20.8770257 L15,17.3216114 L18.2514447,17.3216114 L18.2514447,14.6996257 C18.2514447,11.656869 20.2196434,10 23.0945372,10 C24.4714536,10 25.6550464,10.0967412 26,10.1399922 L26,13.3199167 L24.0060934,13.3207994 C22.4426777,13.3207994 22.1399786,14.0222611 22.1399786,15.0516365 L22.1399786,17.3216114 L25.8686559,17.3216114 L25.3831033,20.8770257 L22.1399786,20.8770257 L22.1399786,30 L18.2514447,30 Z" id="Fill-5" fill="#FFFFFF"></path>
                                        <rect id="Rectangle-2" fill="#DD73A7" x="0" y="50" width="40" height="40" rx="4"></rect>
                                        <path d="M18.2514447,80 L18.2514447,70.8770257 L15,70.8770257 L15,67.3216114 L18.2514447,67.3216114 L18.2514447,64.6996257 C18.2514447,61.656869 20.2196434,60 23.0945372,60 C24.4714536,60 25.6550464,60.0967412 26,60.1399922 L26,63.3199167 L24.0060934,63.3207994 C22.4426777,63.3207994 22.1399786,64.0222611 22.1399786,65.0516365 L22.1399786,67.3216114 L25.8686559,67.3216114 L25.3831033,70.8770257 L22.1399786,70.8770257 L22.1399786,80 L18.2514447,80 Z" id="Fill-6" fill="#FFFFFF"></path>
                                    </g>
                                </g>
                            </g>
                        </g>
                    </g>
                </g>
            </g>
        </g>
    </g>
</svg>