<?xml version="1.0" encoding="UTF-8" standalone="no"?>
<svg width="27px" height="24px" viewBox="0 0 27 24" version="1.1" xmlns="http://www.w3.org/2000/svg" xmlns:xlink="http://www.w3.org/1999/xlink" xmlns:sketch="http://www.bohemiancoding.com/sketch/ns">
    <!-- Generator: Sketch 3.1.1 (8761) - http://www.bohemiancoding.com/sketch -->
    <title>icon_29431</title>
    <desc>Created with Sketch.</desc>
    <defs></defs>
    <g id="startpage" stroke="none" stroke-width="1" fill="none" fill-rule="evenodd" sketch:type="MSPage">
        <g id="ss12" sketch:type="MSArtboardGroup" transform="translate(-895.000000, -3065.000000)" fill="#C1C0BE">
            <g id="Rectangle-227-+-icon_29431-+-Skriv-en-kommentar--+-Har-du-input-på-den-" sketch:type="MSLayerGroup" transform="translate(879.000000, 2967.000000)">
                <g id="Rectangle-227-+-icon_29431-+-Skriv-en-kommentar-" transform="translate(0.000000, 69.000000)" sketch:type="MSShapeGroup">
                    <g id="icon_29431" transform="translate(16.000000, 29.000000)">
                        <path d="M22.073431,8.34708333 L22.073431,8.34708333 C22.073431,8.34660417 22.073431,8.34660417 22.073431,8.34708333 C22.019431,8.06389583 21.9505345,7.78645833 21.870931,7.51285417 C21.8658103,7.49560417 21.8611552,7.47835417 21.8560345,7.46110417 C21.7768966,7.19516667 21.6856552,6.9345 21.5832414,6.67814583 C21.5743966,6.65610417 21.5650862,6.6340625 21.5562414,6.61202083 C21.452431,6.35758333 21.3388448,6.10841667 21.2126897,5.86404167 C21.2033793,5.84583333 21.1931379,5.82810417 21.1838276,5.810375 C21.0534828,5.5616875 20.9147586,5.31779167 20.7625345,5.08060417 C20.762069,5.07964583 20.7611379,5.0786875 20.7602069,5.07725 C20.1438621,4.117 19.3562069,3.25929167 18.4321552,2.53622917 C18.3967759,2.5084375 18.3641897,2.47872917 18.3283448,2.45141667 C18.1612241,2.32395833 17.9857241,2.20608333 17.8106897,2.08725 C17.7138621,2.02160417 17.6188966,1.95404167 17.5197414,1.89127083 C17.3628621,1.7925625 17.2013276,1.70104167 17.0388621,1.60952083 C16.9113103,1.53716667 16.7832931,1.46577083 16.6524828,1.39820833 C16.4997931,1.319625 16.3438448,1.2463125 16.1865,1.17395833 C16.0366034,1.10495833 15.8848448,1.0393125 15.7312241,0.976541667 C15.5803966,0.915208333 15.4291034,0.85675 15.2745517,0.801166667 C15.1037069,0.739833333 14.9305345,0.68425 14.7559655,0.630104167 C14.6088621,0.5850625 14.4622241,0.539541667 14.3123276,0.50025 C14.1191379,0.448979167 13.9226897,0.406333333 13.7253103,0.364166667 C13.5856552,0.334458333 13.4473966,0.302354167 13.3058793,0.2774375 C13.080569,0.238145833 12.8506034,0.210354167 12.6206379,0.183520833 C12.501,0.169625 12.3832241,0.149979167 12.2621897,0.1394375 C11.9083966,0.108770833 11.5508793,0.0905625 11.1882414,0.0905625 C5.08158621,0.0905625 0.131275862,4.54777083 0.131275862,10.0466875 C0.131275862,12.2206667 0.913810345,14.2255 2.22703448,15.8632917 L0.344948276,20.3382292 C2.36110345,19.7728125 4.07839655,19.1901458 5.56246552,18.607 C7.21225862,19.4881875 9.13112069,20.0028125 11.1882414,20.0028125 C17.2948966,20.0028125 22.2452069,15.545125 22.2452069,10.0466875 C22.2456724,9.46545833 22.1791034,8.90004167 22.073431,8.34708333 L22.073431,8.34708333 Z" id="Shape"></path>
                        <path d="M26.8240345,15.2312708 C26.8240345,12.7769792 25.542931,10.5967708 23.5551724,9.1885 C23.5784483,9.47264583 23.6026552,9.7563125 23.6026552,10.0457292 C23.6026552,15.7425417 18.9851897,20.4594583 12.9958448,21.2639792 C14.4505862,22.2989792 16.2842586,22.9218958 18.2827241,22.9218958 C19.8715345,22.9218958 21.3542069,22.5241875 22.6283276,21.8437708 C23.774431,22.2941875 25.1011552,22.744125 26.6583103,23.181125 L25.2045,19.7248958 C26.2193276,18.4594167 26.8240345,16.91075 26.8240345,15.2312708 L26.8240345,15.2312708 Z" id="Shape"></path>
                    </g>
                </g>
            </g>
        </g>
    </g>
</svg>