<?xml version="1.0" encoding="utf-8"?>
<!-- Generator: Adobe Illustrator 15.0.0, SVG Export Plug-In . SVG Version: 6.00 Build 0)  -->
<!DOCTYPE svg PUBLIC "-//W3C//DTD SVG 1.1//EN" "http://www.w3.org/Graphics/SVG/1.1/DTD/svg11.dtd">
<svg version="1.1" id="Layer_1" xmlns="http://www.w3.org/2000/svg" xmlns:xlink="http://www.w3.org/1999/xlink" x="0px" y="0px"
	 width="100px" height="100px" viewBox="0 0 100 100" style="enable-background:new 0 0 100 100;" xml:space="preserve">
<style type="text/css">
<![CDATA[
	.st0{fill-rule:evenodd;clip-rule:evenodd;fill:#212121;}
]]>
</style>
<g>
	<polygon class="st0" points="0,26.667 0,79.998 0,93.334 0,100 53.335,100 53.335,79.998 20.002,79.998 20.002,26.667 	"/>
	<polygon class="st0" points="26.667,0 26.667,53.33 26.667,66.667 26.667,73.332 80.003,73.332 80.003,53.33 46.67,53.33 46.67,0 	
		"/>
</g>
</svg>
