<?xml version="1.0" encoding="utf-8"?>
<!-- Generator: Adobe Illustrator 16.0.0, SVG Export Plug-In . SVG Version: 6.00 Build 0)  -->
<!DOCTYPE svg PUBLIC "-//W3C//DTD SVG 1.1//EN" "http://www.w3.org/Graphics/SVG/1.1/DTD/svg11.dtd">
<svg version="1.1" id="Layer_1" xmlns="http://www.w3.org/2000/svg" xmlns:xlink="http://www.w3.org/1999/xlink" x="0px" y="0px"
	 width="100px" height="213.666px" viewBox="-0.25 0 100 213.666" enable-background="new -0.25 0 100 213.666"
	 xml:space="preserve">
<g>
	<path fill="#7AC143" d="M-0.25,51c0-27.618,22.383-50,50.001-50C77.364,1,99.75,23.382,99.75,51s-22.386,50-49.999,50
		C22.133,101-0.25,78.618-0.25,51z"/>
	<polygon fill="#FFFFFF" points="51.311,59.902 23.422,39.866 23.422,70.605 79.203,70.605 79.203,39.866 	"/>
	<polygon fill="#FFFFFF" points="78.93,34.514 23.695,34.514 51.311,54.318 	"/>
</g>
<g>
	<path fill="#F0F0F0" d="M-0.25,162.666c0-27.618,22.383-50,50.001-50c27.612,0,49.999,22.382,49.999,50s-22.387,50-50,50
		C22.132,212.666-0.25,190.284-0.25,162.666z"/>
	<polygon fill="#7CBE4F" points="51.311,171.567 23.421,151.532 23.421,182.271 79.203,182.271 79.203,151.532 	"/>
	<polygon fill="#7CBE4F" points="78.93,146.181 23.695,146.181 51.311,165.983 	"/>
</g>
</svg>
