<?xml version="1.0" encoding="utf-8"?>
<!-- Generator: Adobe Illustrator 15.0.0, SVG Export Plug-In . SVG Version: 6.00 Build 0)  -->
<!DOCTYPE svg PUBLIC "-//W3C//DTD SVG 1.1//EN" "http://www.w3.org/Graphics/SVG/1.1/DTD/svg11.dtd">
<svg version="1.1" id="Layer_1" xmlns="http://www.w3.org/2000/svg" xmlns:xlink="http://www.w3.org/1999/xlink" x="0px" y="0px"
	 width="100px" height="100px" viewBox="0 0 100 100" style="enable-background:new 0 0 100 100;" xml:space="preserve">
<style type="text/css">
<![CDATA[
	.st0{fill:#FFFFFF;}
	.st1{fill-rule:evenodd;clip-rule:evenodd;fill:#7AC143;}
]]>
</style>
<g>
	<path class="st1" d="M0,50C0,22.382,22.383,0,50.001,0C77.614,0,100,22.382,100,50s-22.386,50-49.999,50C22.383,100,0,77.618,0,50z
		"/>
	<polygon class="st0" points="51.561,58.903 23.672,38.866 23.672,69.606 79.453,69.606 79.453,38.866 	"/>
	<polygon class="st0" points="79.18,33.514 23.945,33.514 51.561,53.319 	"/>
</g>
</svg>
