<?xml version="1.0" encoding="UTF-8" standalone="no"?>
<svg width="55px" height="33px" viewBox="0 0 55 33" version="1.1" xmlns="http://www.w3.org/2000/svg" xmlns:xlink="http://www.w3.org/1999/xlink" xmlns:sketch="http://www.bohemiancoding.com/sketch/ns">
    <!-- Generator: Sketch 3.1.1 (8761) - http://www.bohemiancoding.com/sketch -->
    <title>Shape</title>
    <desc>Created with Sketch.</desc>
    <defs></defs>
    <g id="Page-1" stroke="none" stroke-width="1" fill="none" fill-rule="evenodd" sketch:type="MSPage">
        <g id="Shape" sketch:type="MSLayerGroup" fill="#FFFFFF">
            <path d="M18.6172546,19.0883073 C15.8257649,19.7077678 -2.18019987,31.173218 3.43703162,33.0337394 C13.3928056,30.7296494 14.0811193,23.2342214 24.9184792,21.0805119 C26.3298432,20.942614 27.7484017,20.902941 28.6419302,21.0805119 L30.6468653,21.0805119 L30.6468653,21.3651126 C37.3264489,21.3668334 39.908374,25.4450027 43.2493145,28.7647296 C43.5906743,29.1039219 44.7705879,32.4054644 45.540669,31.8953368 C46.9587813,30.9559315 45.2082068,27.8194267 44.681411,26.772525 C42.3151487,22.07005 36.2300869,19.4009796 30.360446,18.2345054 L28.0690916,18.2345054 L28.0690916,17.9499047 L24.6320599,17.9499047 L24.6320599,18.2345054 C22.1163651,17.7518881 20.6452316,19.0883073 18.6172546,19.0883073 L18.6172546,19.0883073 Z M2.29135441,2.86607003 C2.07799768,4.9551005 1.03288834,6.44496806 0.572838603,8.27348247 L0.572838603,10.2656871 L0.286419302,10.2656871 L0.286419302,14.2500962 L0,14.2500962 L0,24.4957198 C0.477365503,24.2111191 0.190946201,24.6854536 0.286419302,24.7803204 C5.68435523,25.8039541 1.06497709,24.6836187 2.57777371,24.4957198 L2.57777371,21.3651126 L2.29135441,21.3651126 L2.29135441,12.8270929 L2.57777371,12.8270929 C2.25429149,10.2449638 2.72814805,10.7530594 3.43703162,9.69648574 L3.43703162,11.6886903 L3.72345092,11.6886903 L3.72345092,14.8192975 L4.00987022,14.8192975 C3.72043125,18.4830568 4.93083033,19.4845531 6.30122463,18.8037067 L6.30122463,14.8192975 L6.58764394,14.8192975 L6.58764394,13.1116936 L6.87406324,13.1116936 C6.60496791,10.7056297 6.88139204,11.4065171 7.73332114,11.6886903 C6.78003701,17.9619788 11.0304153,22.3774718 9.45183695,14.5346969 L9.45183695,11.4040897 L9.16541765,11.4040897 C9.20135672,0.387461666 6.87087741,8.27664807 5.15554743,9.9810864 C5.02714007,8.71944521 4.96622037,7.88757948 5.15554743,7.13507985 C6.69487384,6.71813785 4.78249898,-4.55991039 2.29135441,2.86607003 L2.29135441,2.86607003 Z M12.8888686,13.3962943 C12.9699198,14.0720788 12.1522531,13.3962943 12.8888686,13.3962943 L12.8888686,13.3962943 Z M17.1851581,13.3962943 L17.1851581,11.119489 L16.8987388,11.119489 C16.8987388,9.22215132 16.5242625,7.2879686 16.8987388,5.42747592 C17.0662097,4.5954383 18.4263084,6.94534608 19.1900932,6.56587854 C20.4384026,5.94568698 23.6009919,5.1999191 24.3456406,7.4196805 L24.3456406,10.8348884 L24.0592213,10.8348884 C24.6358754,15.2152049 23.9114835,14.034396 22.6271248,13.3962943 C23.3182399,4.70854482 21.3409943,9.28327907 21.7678669,11.4040897 C22.4268286,14.9129415 21.0336737,13.6007299 20.0493511,13.1116936 C21.5070729,8.02058286 19.2909003,8.91105004 18.9036739,10.8348884 C20.8471316,13.464778 18.1421683,15.2981615 17.1851581,13.3962943 L17.1851581,13.3962943 Z M10.8839335,11.4040897 L10.8839335,12.2578916 L10.5975142,12.2578916 C9.4329278,17.7287065 17.4866102,15.6880369 14.8938037,13.1116936 C14.2899788,12.5117027 13.4125654,14.5184203 12.6024493,14.2500962 C11.7893095,12.7780083 14.3209651,9.28364363 14.3209651,11.973291 C16.8512655,12.3894658 15.9791704,11.6736531 15.7530616,10.5502877 C16.4644535,5.41521369 15.5734968,7.34743194 14.6073844,5.42747592 C12.5907892,5.28591616 9.73824748,6.56584368 10.3110949,8.84268378 C10.4046525,9.21453808 11.4844997,9.15483603 11.7431914,9.41188509 C11.9883482,9.65548526 10.9082624,11.3315664 10.8839335,11.4040897 L10.8839335,11.4040897 Z M13.4617072,9.12728443 C6.82840801,8.97027341 19.1347578,6.30876991 13.4617072,9.12728443 L13.4617072,9.12728443 Z M26.9234143,12.8270929 C25.5469697,12.6119715 28.0265621,8.06218543 28.3555109,9.69648574 C28.6769795,11.2936231 27.9744371,12.5424923 30.360446,12.5424923 C34.0292028,1.60461834 23.9682344,5.88551155 26.0641564,7.13507985 C26.2693121,7.25739165 30.7148705,5.9065793 28.9283495,8.27348247 C28.8141359,8.4248003 25.9403724,8.07327537 24.9184792,11.119489 C24.8856872,12.7594838 25.2857259,14.0056526 26.3505757,14.5346969 C33.4588183,13.6997836 27.0712511,12.900542 26.9234143,12.8270929 L26.9234143,12.8270929 Z M38.6666057,4.2890733 C38.3801864,3.81473888 38.8575519,4.09933953 38.953025,4.00447265 C37.6118147,-5.84693381 32.122313,13.7885849 32.6518004,15.1038982 C32.885761,15.6850858 34.3279039,15.4701847 34.6567355,15.3884988 L34.6567355,13.6808949 L34.9431548,13.6808949 C34.1076815,12.9531008 36.1275458,8.91961977 36.3752513,9.41188509 C36.7389375,10.1346389 35.9150186,11.1097421 36.088832,11.973291 C36.7328577,15.1729729 39.3481926,7.27204994 37.8073478,13.3962943 C37.6360599,15.5076247 38.3538935,16.4407432 39.8122829,15.9577001 C40.0335239,10.9296757 41.9158858,6.74291472 42.9628952,2.58146937 C42.6054402,-5.1749105 38.6666057,7.56407057 38.6666057,4.2890733 L38.6666057,4.2890733 Z M44.9678303,7.13507985 C44.5450505,7.13907848 44.0813471,6.29480413 43.5357338,6.56587854 C42.1120149,7.273218 40.4886213,22.1949875 43.2493145,13.9654956 C43.6771591,12.6901118 44.8782355,11.4755928 45.2542497,9.9810864 L45.2542497,7.13507985 L44.9678303,7.13507985 L44.9678303,7.13507985 Z M44.1085724,2.58146937 C47.876696,0.882198174 45.3509116,6.28482171 44.1085724,2.58146937 L44.1085724,2.58146937 Z M49.2641199,7.4196805 C49.319873,6.55234978 46.0078933,8.16853878 46.6863462,8.84268378 C47.5085133,9.65963044 47.9284055,8.62192986 48.6912813,9.12728443 C49.1193678,9.4108633 48.7094328,10.496179 48.6912813,10.5502877 C48.6912813,11.3092228 48.959464,12.1164799 48.6912813,12.8270929 C48.4210115,13.5432361 47.154708,12.3924946 46.3999269,12.5424923 C45.4961452,12.7221009 43.9220734,15.7591285 43.5357338,16.5269015 C41.4302896,21.3995053 48.9112552,22.4579985 48.1184427,18.519106 C48.0654837,18.2559926 47.8017853,19.0034558 47.5456041,19.0883073 C46.65615,19.3829095 45.9505526,19.2266837 45.2542497,19.0883073 C45.2622198,16.7287381 45.4222728,13.9654956 47.8320234,13.9654956 C47.7295805,16.4874624 47.5967072,17.9329785 49.2641199,17.3807034 C48.8235572,14.4591055 49.9323988,13.3015578 50.4097971,11.4040897 C50.5570225,7.6235979 50.8738407,8.2194304 49.2641199,7.4196805 L49.2641199,7.4196805 Z M51.5554743,14.2500962 L51.5554743,12.8270929 L51.8418936,12.8270929 C51.8771272,10.5479849 51.9059531,2.75559609 54.9925059,4.2890733 C55.1109232,7.64198614 53.7986688,8.98624597 52.9875708,11.4040897 C52.6630997,12.3713223 52.1107806,15.3536568 51.5554743,14.2500962 L51.5554743,14.2500962 Z M52.1283129,20.7959113 C52.3604323,22.8826018 52.0060358,22.1773152 51.5554743,23.0727165 C47.9854672,22.6640396 48.7014277,19.0933484 52.1283129,20.7959113 L52.1283129,20.7959113 Z M25.4913178,23.3573172 C26.3085291,17.1562037 28.5235527,29.38328 25.4913178,23.3573172 L25.4913178,23.3573172 Z" sketch:type="MSShapeGroup"></path>
        </g>
    </g>
</svg>