<?xml version="1.0" encoding="utf-8"?>
<!-- Generator: Adobe Illustrator 15.0.0, SVG Export Plug-In . SVG Version: 6.00 Build 0)  -->
<!DOCTYPE svg PUBLIC "-//W3C//DTD SVG 1.1//EN" "http://www.w3.org/Graphics/SVG/1.1/DTD/svg11.dtd">
<svg version="1.1" id="Layer_1" xmlns="http://www.w3.org/2000/svg" xmlns:xlink="http://www.w3.org/1999/xlink" x="0px" y="0px"
	 width="100px" height="100px" viewBox="0 0 100 100" style="enable-background:new 0 0 100 100;" xml:space="preserve">
<style type="text/css">
<![CDATA[
	.st0{fill:#7AC143;}
]]>
</style>
<g>
	<path class="st0" d="M67.172,13.782l-5.723-0.388v5.945H38.552v-5.945l-5.723,0.388C29.271,28.01,20.878,40.346,9.486,48.904
		v23.342h81.027V48.904C79.122,40.346,70.729,28.01,67.172,13.782z"/>
	<path class="st0" d="M88.956,5.224C88.902,5.224,68.008,0,50,0C31.938,0,11.044,5.224,11.044,5.224
		C3.373,7.001-1.406,14.672,0.371,22.341c0.445,1.946,1.224,3.669,2.336,5.169l25.619-5.948c0.334-1.777,0.277-3.723-0.168-5.611
		c-0.222-1.113-0.61-2.223-1.11-3.169c6.391-0.722,14.561-1.333,22.952-1.333s16.562,0.61,22.952,1.333
		c-0.5,0.947-0.888,2.057-1.167,3.169c-0.389,1.889-0.445,3.834-0.111,5.611l16.895,11.56c5.335-1.056,9.782-5.112,11.061-10.781
		C101.406,14.672,96.628,7.001,88.956,5.224z"/>
</g>
</svg>
