<?xml version="1.0" encoding="utf-8"?>
<!-- Generator: Adobe Illustrator 16.0.0, SVG Export Plug-In . SVG Version: 6.00 Build 0)  -->
<!DOCTYPE svg PUBLIC "-//W3C//DTD SVG 1.1//EN" "http://www.w3.org/Graphics/SVG/1.1/DTD/svg11.dtd">
<svg version="1.1" id="Layer_1" xmlns="http://www.w3.org/2000/svg" xmlns:xlink="http://www.w3.org/1999/xlink" x="0px" y="0px"
	 width="100px" height="100px" viewBox="0 0 100 100" enable-background="new 0 0 100 100" xml:space="preserve">
<g id="XMLID_13_">
	<g>
		<g id="XMLID_10_">
			<g>
				<path fill="#DFDFDF" d="M0.504,86.871l23.489-23.492c-4.212-6.436-6.68-14.128-6.68-22.433C17.313,18.308,35.663,0,58.298,0
					c22.599,0,40.945,18.306,40.945,40.946c0,22.601-18.347,40.942-40.945,40.942c-7.903,0-15.264-2.227-21.504-6.074l-23.65,23.656
					c-1.22,1.254-4.255,0.201-6.762-2.312l-3.533-3.521C0.343,91.123-0.709,88.086,0.504,86.871z M58.298,68.283
					c15.106,0,27.337-12.23,27.337-27.337c0-15.107-12.229-27.377-27.337-27.377c-15.109,0-27.376,12.27-27.376,27.377
					C30.921,56.049,43.189,68.283,58.298,68.283z"/>
			</g>
		</g>
	</g>
</g>
</svg>
