<?xml version="1.0" encoding="UTF-8" standalone="no"?>
<svg width="40px" height="90px" viewBox="0 0 40 90" version="1.1" xmlns="http://www.w3.org/2000/svg" xmlns:xlink="http://www.w3.org/1999/xlink" xmlns:sketch="http://www.bohemiancoding.com/sketch/ns">
    <!-- Generator: Sketch 3.1.1 (8761) - http://www.bohemiancoding.com/sketch -->
    <title>Group</title>
    <desc>Created with Sketch.</desc>
    <defs></defs>
    <g id="Page-1" stroke="none" stroke-width="1" fill="none" fill-rule="evenodd" sketch:type="MSPage">
        <g id="Group" sketch:type="MSLayerGroup">
            <rect id="Rectangle-2" fill="#DD73A7" sketch:type="MSShapeGroup" x="0" y="50" width="40" height="40" rx="4"></rect>
            <rect id="Rectangle-1" fill="#A05599" sketch:type="MSShapeGroup" x="0" y="0" width="40" height="40" rx="4"></rect>
            <path d="M30,14.012427 C29.2641282,14.3537614 28.4733897,14.5845313 27.6432935,14.6882095 C28.4905812,14.1571173 29.1411537,13.3159854 29.447456,12.3138655 C28.6547423,12.8057053 27.7765829,13.1628019 26.8418742,13.3553142 C26.0934197,12.5211452 25.0269578,12 23.8468854,12 C21.5806723,12 19.7435166,13.9215269 19.7435166,16.291586 C19.7435166,16.6280235 19.7798017,16.9554321 19.8497385,17.2695271 C16.4395918,17.0906345 13.4161454,15.3820495 11.3923699,12.7855053 C11.0391016,13.419434 10.8368265,14.1566582 10.8368265,14.9431582 C10.8368265,16.432068 11.5612129,17.7456814 12.6622042,18.5153481 C11.9896119,18.4930821 11.3568894,18.2999577 10.803687,17.9785172 C10.8033944,17.9964218 10.8033213,18.0144029 10.8033213,18.0324605 C10.8033213,20.1118383 12.217711,21.8464384 14.0948096,22.2406449 C13.7504664,22.3386609 13.3879805,22.3911503 13.0137898,22.3911503 C12.7493325,22.3911503 12.492337,22.364217 12.2417791,22.314176 C12.7639636,24.0191648 14.2792348,25.2600122 16.074765,25.2946736 C14.6704708,26.4456922 12.9012766,27.1318042 10.9788215,27.1318042 C10.6476462,27.1318042 10.3210066,27.1114512 10,27.0718928 C11.8159406,28.2895561 13.972713,29 16.2899155,29 C23.837302,29 27.9644464,22.4604731 27.9644464,16.7892411 C27.9644464,16.603156 27.960496,16.4179892 27.9525952,16.2340466 C28.7541607,15.6289642 29.4498701,14.8730702 30,14.012427" id="Fill-2" fill="#FFFFFF" sketch:type="MSShapeGroup"></path>
            <path d="M30,64.012427 C29.2641282,64.3537614 28.4733897,64.5845313 27.6432935,64.6882095 C28.4905812,64.1571173 29.1411537,63.3159854 29.447456,62.3138655 C28.6547423,62.8057053 27.7765829,63.1628019 26.8418742,63.3553142 C26.0934197,62.5211452 25.0269578,62 23.8468854,62 C21.5806723,62 19.7435166,63.9215269 19.7435166,66.291586 C19.7435166,66.6280235 19.7798017,66.9554321 19.8497385,67.2695271 C16.4395918,67.0906345 13.4161454,65.3820495 11.3923699,62.7855053 C11.0391016,63.419434 10.8368265,64.1566582 10.8368265,64.9431582 C10.8368265,66.432068 11.5612129,67.7456814 12.6622042,68.5153481 C11.9896119,68.4930821 11.3568894,68.2999577 10.803687,67.9785172 C10.8033944,67.9964218 10.8033213,68.0144029 10.8033213,68.0324605 C10.8033213,70.1118383 12.217711,71.8464384 14.0948096,72.2406449 C13.7504664,72.3386609 13.3879805,72.3911503 13.0137898,72.3911503 C12.7493325,72.3911503 12.492337,72.364217 12.2417791,72.314176 C12.7639636,74.0191648 14.2792348,75.2600122 16.074765,75.2946736 C14.6704708,76.4456922 12.9012766,77.1318042 10.9788215,77.1318042 C10.6476462,77.1318042 10.3210066,77.1114512 10,77.0718928 C11.8159406,78.2895561 13.972713,79 16.2899155,79 C23.837302,79 27.9644464,72.4604731 27.9644464,66.7892411 C27.9644464,66.603156 27.960496,66.4179892 27.9525952,66.2340466 C28.7541607,65.6289642 29.4498701,64.8730702 30,64.012427" id="Fill-3" fill="#FFFFFF" sketch:type="MSShapeGroup"></path>
        </g>
    </g>
</svg>