<?xml version="1.0" encoding="UTF-8" standalone="no"?>
<svg width="504px" height="442px" viewBox="0 0 504 442" version="1.1" xmlns="http://www.w3.org/2000/svg" xmlns:xlink="http://www.w3.org/1999/xlink" xmlns:sketch="http://www.bohemiancoding.com/sketch/ns">
    <!-- Generator: Sketch 3.1.1 (8761) - http://www.bohemiancoding.com/sketch -->
    <title>Group</title>
    <desc>Created with Sketch.</desc>
    <defs></defs>
    <g id="Page-1" stroke="none" stroke-width="1" fill="none" fill-rule="evenodd" sketch:type="MSPage">
        <g id="Imported-Layers" sketch:type="MSLayerGroup">
            <g transform="translate(0.000000, 0.124237)" id="Group" sketch:type="MSShapeGroup">
                <g>
                    <path d="M124.393784,441.467225 L250.669433,367.536917 L124.393784,293.611022 L124.393784,441.467225 Z" id="Fill-1" fill="#A05598"></path>
                    <path d="M250.669211,367.537799 L376.947075,441.468108 L376.947075,293.609698 L250.669211,367.537799 Z" id="Fill-2" fill="#5AB1A0"></path>
                    <path d="M250.994557,74.5686705 L377.270206,0.640568944 L377.270206,148.496772 L250.994557,74.5686705 Z" id="Fill-3" fill="#B1C510"></path>
                    <path d="M252.551741,74.3035695 L126.276092,0.377675211 L126.276092,148.231671 L252.551741,74.3035695 Z" id="Fill-4" fill="#FFFF9B"></path>
                    <path d="M0,222.162201 L126.275649,296.09251 L126.275649,148.234099 L0,222.162201 Z" id="Fill-5" fill="#DD73A7"></path>
                    <path d="M503.546297,222.427964 L377.270649,148.499862 L377.270649,296.356066 L503.546297,222.427964 Z" id="Fill-6" fill="#308099"></path>
                </g>
            </g>
        </g>
    </g>
</svg>